@startuml

'left to right direction

title Example object (instance) diagram of a raised floor control configuration

object Root <<ROOT>>
object Building1 <<BUILDING>> {
	lastExportTs
}
object Drawing1 <<DRAWING>>
object Room1 <<ROOM>> {
	control = raised_floor
}
object CRAH1 <<CRAC>>

object CRAH_Control1 <<PT/R_Strategy>> {
	resource = temperature
}
object CRAH_OD1 <<CRAH_OutputDriver>> {
	resource = temperature
}

object Rack1 <<RACK>>
object Pressure1 <<PRESSURE>>

object COIN1 <<COIN_SINGLECOMPARE>> {
	resource = temperature
}
object COIN2 <<COIN_SINGLECOMPARE>> {
	resource = pressure
}

object VFD_Control1 <<PT/R_Strategy>> {
	resource = pressure
}
object VFD_OD1 <<VFD_OutputDriver>> {
	resource = pressure
}

object RoomPController <<Room_Strategy>> {
	resource = pressure
}

object RoomTController <<Room_Strategy>> {
	resource = temperature
}

object HeartbeatManager1 <<HEARTBEAT_MANAGER>> {
	OPTIONAL
}

Root --> Building1 : P/C
Building1 --> Drawing1 : P/C
Drawing1 --> Room1 : P/C

Room1 --> CRAH1 : P/C
Room1 ..> Room1 : P/C - Nested rooms childed

CRAH1 --> CRAH_Control1 : P/C

CRAH1 --> VFD_Control1 : P/C

CRAH1 --> CRAH_OD1 : P/C
CRAH1 --> VFD_OD1 : P/C

Room1 --> Rack1 : P/C
Room1 --> Pressure1 : P/C

Rack1 --> COIN1 : P/C
Pressure1 --> COIN2 : P/C
Room1 --> RoomPController : P/C
Room1 --> RoomTController : P/C

Room1 --> HeartbeatManager1 : P/C

@enduml
