<?xml version="1.0" encoding="UTF-8" standalone="no"?>
<svg
   xmlns:dc="http://purl.org/dc/elements/1.1/"
   xmlns:cc="http://creativecommons.org/ns#"
   xmlns:rdf="http://www.w3.org/1999/02/22-rdf-syntax-ns#"
   xmlns:svg="http://www.w3.org/2000/svg"
   xmlns="http://www.w3.org/2000/svg"
   xmlns:sodipodi="http://sodipodi.sourceforge.net/DTD/sodipodi-0.dtd"
   xmlns:inkscape="http://www.inkscape.org/namespaces/inkscape"
   version="1.1"
   id="body"
   width="8in"
   height="8in"
   viewBox="0 0 1 1"
   preserveAspectRatio="none"
   inkscape:version="0.47 r22583"
   sodipodi:docname="SySeLogo.svg">
  <metadata
     id="metadata4009">
    <rdf:RDF>
      <cc:Work
         rdf:about="">
        <dc:format>image/svg+xml</dc:format>
        <dc:type
           rdf:resource="http://purl.org/dc/dcmitype/StillImage" />
        <dc:title>SVG drawing</dc:title>
      </cc:Work>
    </rdf:RDF>
  </metadata>
  <defs
     id="defs4007"><inkscape:perspective
   sodipodi:type="inkscape:persp3d"
   inkscape:vp_x="0 : 360 : 1"
   inkscape:vp_y="0 : 1000 : 0"
   inkscape:vp_z="720 : 360 : 1"
   inkscape:persp3d-origin="360 : 240 : 1"
   id="perspective4011" />



















</defs>
  <sodipodi:namedview
     pagecolor="#ffffff"
     bordercolor="#666666"
     borderopacity="1"
     objecttolerance="10"
     gridtolerance="10"
     guidetolerance="10"
     inkscape:pageopacity="0"
     inkscape:pageshadow="2"
     inkscape:window-width="1600"
     inkscape:window-height="1174"
     id="namedview4005"
     showgrid="false"
     showguides="true"
     inkscape:guide-bbox="true"
     inkscape:zoom="0.32777778"
     inkscape:cx="1155.1271"
     inkscape:cy="360"
     inkscape:window-x="1680"
     inkscape:window-y="26"
     inkscape:window-maximized="0"
     inkscape:current-layer="body" />
  <title
     id="title3963">SVG drawing</title>
  <desc
     id="desc3965">This was produced by version 4.4 of GNU libplot, a free library for exporting 2-D vector graphics.</desc>
  <path
     style="font-style:normal;font-variant:normal;font-weight:normal;font-stretch:normal;letter-spacing:normal;word-spacing:normal;text-anchor:start;fill:#060808;fill-rule:nonzero;stroke:#060808;stroke-width:0;stroke-linecap:butt;stroke-linejoin:miter;stroke-miterlimit:10.43299961;stroke-opacity:1;stroke-dasharray:none;stroke-dashoffset:0"
     id="path3981"
     d="m 0.71675523,0.39898457 -1.7361e-4,0.002465 0,0.002483 -3.4722e-4,0.002483 -3.4722e-4,0.0025 -5.2083e-4,0.0025 -5.2083e-4,0.002517 -6.9444e-4,0.002516 -6.9444e-4,0.00253 -8.6805e-4,0.002538 -8.6805e-4,0.002545 -0.001042,0.002556 -0.001215,0.002562 -0.001215,0.002571 -0.001389,0.002582 -0.001562,0.002589 -0.001562,0.002597 c -0.009896,0.0161596 -0.0225693,0.0264148 -0.0383678,0.0306942 -0.0105902,0.003031 -0.0161457,0.00455 -0.0166666,0.00455 l -0.31215078,0 0,0.0998523 c 1.7361e-4,0.003323 -0.002778,0.006741 -0.008854,0.0103216 -0.005035,0.002787 -0.008333,0.004164 -0.009722,0.004164 -0.002951,0 -0.006597,-0.001377 -0.011111,-0.004164 -0.005382,-0.00356 -0.007986,-0.007087 -0.007986,-0.0106472 l 0,-0.23243914 c 0,-0.004323 0.002604,-0.008524 0.007639,-0.0125694 0.005035,-0.004028 0.009375,-0.006042 0.0131944,-0.006042 l 0.3263868,0 c 0.003993,0 0.0109374,0.001632 0.0208332,0.004896 0.0149305,0.004792 0.0272568,0.0151735 0.0368053,0.0310936 0.00868,0.0136284 0.0130207,0.0268922 0.0130207,0.0397567 z" />
  <path
     style="font-style:normal;font-variant:normal;font-weight:normal;font-stretch:normal;letter-spacing:normal;word-spacing:normal;text-anchor:start;fill:#060808;fill-rule:nonzero;stroke:#060808;stroke-width:0;stroke-linecap:butt;stroke-linejoin:miter;stroke-miterlimit:10.43299961;stroke-opacity:1;stroke-dasharray:none;stroke-dashoffset:0"
     id="path3977"
     d="m 0.0340339,0.3254781 1.7361e-4,-1.5625e-4 1.7361e-4,-1.7361e-4 1.7361e-4,-1.5625e-4 1.9098e-4,-1.3888e-4 2.0833e-4,-1.5625e-4 2.0833e-4,-1.3889e-4 2.0833e-4,-1.3889e-4 2.2569e-4,-1.3889e-4 2.257e-4,-1.2153e-4 2.4305e-4,-1.3888e-4 2.4306e-4,-1.0417e-4 2.4305e-4,-1.2153e-4 2.6041e-4,-1.0416e-4 2.7778e-4,-1.2153e-4 2.6042e-4,-8.68e-5 2.7777e-4,-1.0417e-4 2.9514e-4,-8.681e-5 2.9514e-4,-8.68e-5 2.9513e-4,-8.681e-5 3.125e-4,-8.68e-5 3.125e-4,-6.944e-5 3.2986e-4,-6.945e-5 3.2986e-4,-6.944e-5 3.4722e-4,-5.209e-5 3.2986e-4,-6.944e-5 3.6458e-4,-5.208e-5 3.4722e-4,-5.209e-5 3.8194e-4,-3.472e-5 3.6458e-4,-3.472e-5 3.8194e-4,-3.472e-5 3.9931e-4,-3.472e-5 3.8194e-4,-3.473e-5 c 0.0046701,0 0.0081597,9.2014e-4 0.01069437,0.002656 0.0058159,0.004809 0.01249992,0.0118749 0.02015612,0.0212846 0.0063021,0.008056 0.01249992,0.0160242 0.01859364,0.0238714 0.02633663,0.031354 0.05251702,0.0626229 0.07864533,0.0937164 0.0412324,0.0490657 0.0683155,0.082437 0.0808155,0.10017818 0.003125,0.00375 0.002778,0.008566 -0.001042,0.0143707 -0.00434,0.006544 -0.009028,0.009806 -0.0144096,0.009806 -0.006597,0 -0.014236,-0.004951 -0.0232637,-0.0148042 -0.006076,-0.007581 -0.0121527,-0.0152042 -0.018177,-0.0227667 l -0.30235917,0 c -0.006302,0.007677 -0.0127082,0.0153541 -0.0189756,0.0229837 -0.008403,0.009738 -0.0157117,0.0145872 -0.0220137,0.0145872 -0.00533,0 -0.0104166,-0.003153 -0.015243,-0.009508 -0.001493,-0.002021 -0.002257,-0.004428 -0.002257,-0.007242 0,-0.005812 0.00375,-0.0132864 0.0113888,-0.0224269 0.00526,-0.006097 0.0104687,-0.012052 0.0155555,-0.0178575 0.0243054,-0.0291734 0.05182259,-0.0621801 0.08237795,-0.0989837 0.01348949,-0.0168975 0.02701371,-0.0338418 0.04067682,-0.0507514 0.01722211,-0.0212499 0.03388867,-0.0399129 0.04977398,-0.0560587 z" />
  <path
     style="font-style:normal;font-variant:normal;font-weight:normal;font-stretch:normal;letter-spacing:normal;word-spacing:normal;text-anchor:start;fill:#060808;fill-rule:nonzero;stroke:#060808;stroke-width:0;stroke-linecap:butt;stroke-linejoin:miter;stroke-miterlimit:10.43299961;stroke-opacity:1;stroke-dasharray:none;stroke-dashoffset:0"
     id="path3969"
     d="m -1.1339968,0.36080774 -0.3339597,0 c -0.00991,0.003073 -0.017436,0.008229 -0.022745,0.0155381 -0.00538,0.007309 -0.00798,0.0151562 -0.00798,0.0236283 0,0.01917 0.010241,0.031689 0.03072,0.0376109 l 0.2807135,0 c 0.020469,0.003505 0.036632,0.0128784 0.048524,0.0280068 0.011198,0.0141544 0.016667,0.0304703 0.016667,0.0488903 0,0.0179235 -0.00524,0.0335953 -0.015885,0.0469893 -0.01184,0.0146551 -0.028281,0.0238509 -0.04927,0.0276284 l -0.3350548,0 c -0.0088,-0.004001 -0.013224,-0.0102741 -0.013224,-0.0187777 0,-0.008274 0.00442,-0.0145329 0.013224,-0.0188002 l 0.3331798,0 c 0.020156,-0.005832 0.030278,-0.0183297 0.030278,-0.0373991 0,-0.00841 -0.00266,-0.0162638 -0.00797,-0.0235189 -0.00531,-0.007243 -0.012778,-0.0124044 -0.022413,-0.0154495 l -0.2807083,0 c -0.020976,-0.003269 -0.03742,-0.0123888 -0.049322,-0.0273366 -0.010898,-0.0134339 -0.016269,-0.0294043 -0.016269,-0.0478435 0,-0.0190276 0.0057,-0.0356248 0.017049,-0.049774 0.012722,-0.0154686 0.029779,-0.0244443 0.05131,-0.0269616 l 0.3304233,0 c 0.010677,0.00224 0.015989,0.008507 0.015989,0.0187672 0,0.008733 -0.0045,0.015052 -0.013281,0.018802 z" />
  <path
     style="font-style:normal;font-variant:normal;font-weight:normal;font-stretch:normal;letter-spacing:normal;word-spacing:normal;text-anchor:start;fill:#060808;fill-rule:nonzero;stroke:#060808;stroke-width:0;stroke-linecap:butt;stroke-linejoin:miter;stroke-miterlimit:10.43299961;stroke-opacity:1;stroke-dasharray:none;stroke-dashoffset:0"
     id="path3971"
     d="m -0.6768296,0.32473158 5.2083e-4,3.6458e-4 4.8611e-4,3.6458e-4 4.861e-4,3.6458e-4 4.6875e-4,3.8194e-4 4.5139e-4,3.9931e-4 4.3402e-4,3.993e-4 4.1667e-4,3.993e-4 4.1666e-4,4.1667e-4 3.8194e-4,4.1666e-4 3.6458e-4,4.3403e-4 3.4722e-4,4.3402e-4 3.4722e-4,4.3403e-4 3.125e-4,4.5138e-4 3.125e-4,4.6875e-4 2.7778e-4,4.5138e-4 2.7777e-4,4.8611e-4 2.6042e-4,4.6875e-4 2.4305e-4,4.8611e-4 2.0833e-4,5.0347e-4 2.0833e-4,5.0346e-4 1.9098e-4,5.0347e-4 1.7361e-4,5.2083e-4 1.5624e-4,5.2083e-4 1.3889e-4,5.382e-4 1.2153e-4,5.3819e-4 1.2153e-4,5.5555e-4 8.68e-5,5.3819e-4 6.945e-5,5.7291e-4 6.944e-5,5.7292e-4 3.472e-5,5.7291e-4 1.736e-5,5.9027e-4 1.736e-5,5.9028e-4 c 0,0.008368 -0.004549,0.0150693 -0.0137326,0.0201561 -0.0245311,0.0134374 -0.0538712,0.0306595 -0.0880723,0.0516837 -0.0291144,0.0179704 -0.0582809,0.0359494 -0.0873432,0.0539146 l 0,0.10625453 c -0.001788,0.0103414 -0.008264,0.0155362 -0.0193228,0.0155362 -0.008871,0 -0.0151735,-0.004428 -0.0186978,-0.0132581 l 0,-0.1085066 c -7.4652e-4,-4.9479e-4 -0.0120312,-0.007194 -0.0337845,-0.0200797 -0.006424,-0.003792 -0.0148263,-0.008858 -0.0255207,-0.015177 -0.004097,-0.002259 -0.0112847,-0.006687 -0.0216839,-0.0132655 -5.0346e-4,-2.8472e-4 -0.006806,-0.004064 -0.0189929,-0.0114253 L -1.052539,0.37153683 c -0.00524,-0.003038 -0.01066,-0.006094 -0.016267,-0.009149 -0.00736,-0.004271 -0.012448,-0.008246 -0.015173,-0.0117708 -0.00182,-0.002274 -0.00264,-0.004965 -0.00264,-0.008003 0,-0.004826 0.00231,-0.009358 0.00707,-0.0135069 0.00472,-0.004184 0.00965,-0.006267 0.01474,-0.006267 0.0026,0 0.00486,5.0347e-4 0.00687,0.001545 0.01316,0.008611 0.0733329,0.0450865 0.18050234,0.10942985 0.006146,-0.002984 0.0178645,-0.009609 0.0353817,-0.0198644 0.0338713,-0.0209895 0.0827425,-0.0507288 0.14663101,-0.0891835 0.002031,-0.001042 0.005017,-0.001684 0.009115,-0.001927 0.004271,0 0.007483,6.2499e-4 0.009479,0.001892 z" />
  <path
     style="font-style:normal;font-variant:normal;font-weight:normal;font-stretch:normal;letter-spacing:normal;word-spacing:normal;text-anchor:start;fill:#060808;fill-rule:nonzero;stroke:#060808;stroke-width:0;stroke-linecap:butt;stroke-linejoin:miter;stroke-miterlimit:10.43299961;stroke-opacity:1;stroke-dasharray:none;stroke-dashoffset:0"
     id="path3973"
     d="m -0.21020064,0.57042271 -3.125e-4,0.001078 -3.2986e-4,0.001043 -3.4722e-4,0.001009 -3.6458e-4,9.7482e-4 -3.6458e-4,9.4044e-4 -3.9931e-4,9.0642e-4 -3.993e-4,8.7187e-4 -4.3402e-4,8.3784e-4 -4.3403e-4,8.0347e-4 -4.5138e-4,7.6927e-4 -4.6875e-4,7.3506e-4 -4.8611e-4,7.0069e-4 -5.0347e-4,6.6666e-4 -5.2083e-4,6.3229e-4 -5.3819e-4,5.9809e-4 -5.3819e-4,5.6388e-4 -5.7291e-4,5.2969e-4 -5.7292e-4,4.9548e-4 -5.9027e-4,4.6128e-4 -6.25e-4,4.2691e-4 -6.2499e-4,3.9288e-4 -6.4236e-4,3.5868e-4 -6.5972e-4,3.2447e-4 -6.7708e-4,2.9045e-4 -6.9444e-4,2.5608e-4 -6.9444e-4,2.2187e-4 -7.2916e-4,1.8785e-4 -7.2916e-4,1.5364e-4 -7.6388e-4,1.1962e-4 -7.6389e-4,8.524e-5 -7.8124e-4,5.122e-5 -8.1597e-4,1.701e-5 c -0.006076,0 -0.0140451,-0.003045 -0.0239061,-0.009128 -0.00658,-0.004537 -0.0133332,-0.009074 -0.0201561,-0.01361 -0.0412671,-0.0235467 -0.0942008,-0.054892 -0.15880107,-0.0940619 -0.0900689,-0.0547288 -0.14314144,-0.0867772 -0.1590962,-0.0961522 l 0,0.19735464 c -0.001823,0.0104029 -0.008246,0.0155975 -0.019427,0.0155975 -0.008854,0 -0.015052,-0.004469 -0.0185416,-0.0133122 l 0,-0.23849379 c 0.004531,-0.009115 0.0106423,-0.0136978 0.0181596,-0.0136978 0.006094,0 0.0139409,0.003316 0.0235241,0.009948 0.007378,0.005139 0.0147742,0.010243 0.0224131,0.0153471 0.0428469,0.0240971 0.0954855,0.0552253 0.15803718,0.0935011 0.0521524,0.0321856 0.10435697,0.0642426 0.15649205,0.0961574 l 0,-0.19738415 c 0.002326,-0.0106423 0.008854,-0.0159721 0.0198263,-0.0159721 0.008854,0 0.0152603,0.004566 0.0193054,0.0136284 z" />
  <polygon
     style="font-style:normal;font-variant:normal;font-weight:normal;font-stretch:normal;letter-spacing:normal;word-spacing:normal;text-anchor:start;fill:#ffffff;fill-rule:nonzero;stroke:#060808;stroke-width:0;stroke-linecap:butt;stroke-linejoin:miter;stroke-miterlimit:10.43299960999999954;stroke-opacity:1;stroke-dasharray:none;stroke-dashoffset:0"
     id="polygon3975"
     points="909.34,126.84 841.04,44.301 978.4,44.301 "
     transform="matrix(0.0017361,0,0,-0.0017361,-1.5354873,0.59004238)" />
  <path
     style="font-style:normal;font-variant:normal;font-weight:normal;font-stretch:normal;letter-spacing:normal;word-spacing:normal;text-anchor:start;fill:#ffffff;fill-rule:nonzero;stroke:#060808;stroke-width:0;stroke-linecap:butt;stroke-linejoin:miter;stroke-miterlimit:10.43299960999999954;stroke-opacity:1;stroke-dasharray:none;stroke-dashoffset:0"
     id="path3979"
     d="m 0.67873464,0.39921027 0,-0.001476 -1.7361e-4,-0.001476 -1.7361e-4,-0.001476 -3.4722e-4,-0.001493 -1.7361e-4,-0.001476 -5.2083e-4,-0.001493 -5.2083e-4,-0.001493 -5.2083e-4,-0.001493 -6.9444e-4,-0.00151 -6.9444e-4,-0.001493 -6.9444e-4,-0.00151 -8.6805e-4,-0.00151 -0.001042,-0.00151 -8.6805e-4,-0.00151 -0.001042,-0.001528 -0.001215,-0.00151 c -0.007292,-0.00934 -0.0154513,-0.0138888 -0.0243054,-0.0136631 l -0.30833136,0 0,0.0755551 0.30815775,0 c 0.005903,0 0.0126735,-0.003201 0.0203124,-0.00963 0.007465,-0.006477 0.0114583,-0.0127656 0.0118055,-0.0188245 0,-7.6388e-4 1.7361e-4,-0.002292 8.6805e-4,-0.004549 6.9444e-4,-0.002274 0.001042,-0.003958 0.001042,-0.004931 z" />
  <path
     style="font-style:normal;font-variant:normal;font-weight:normal;font-stretch:normal;letter-spacing:normal;word-spacing:normal;text-anchor:start;fill:#060808;fill-rule:nonzero;stroke:#060808;stroke-width:0;stroke-linecap:butt;stroke-linejoin:miter;stroke-miterlimit:10.43299961;stroke-opacity:1;stroke-dasharray:none;stroke-dashoffset:0"
     id="path3983"
     d="m 2.4750773,0.36080774 -0.333852,0 c -0.010069,0.003073 -0.017535,0.008229 -0.022917,0.0155381 -0.00521,0.007309 -0.00799,0.0151562 -0.00799,0.0236283 0,0.01917 0.010243,0.031689 0.030903,0.0376109 l 0.2805537,0 c 0.020486,0.003505 0.036632,0.0128784 0.048611,0.0280068 0.011111,0.0141544 0.016667,0.0304703 0.016667,0.0488903 0,0.0179235 -0.00538,0.0335953 -0.015799,0.0469893 -0.011979,0.0146551 -0.028472,0.0238509 -0.049305,0.0276284 l -0.3350672,0 c -0.00885,-0.004001 -0.013368,-0.0102741 -0.013368,-0.0187777 0,-0.008274 0.00451,-0.0145329 0.013368,-0.0188002 l 0.3331575,0 c 0.020139,-0.005832 0.030208,-0.0183297 0.030208,-0.0373991 0,-0.00841 -0.0026,-0.0162638 -0.00799,-0.0235189 -0.00521,-0.007243 -0.012847,-0.0124044 -0.022396,-0.0154495 l -0.2807273,0 C 2.118301,0.47188544 2.101808,0.46276564 2.089829,0.44781784 2.078892,0.43438394 2.07351,0.41841354 2.07351,0.39997434 c 0,-0.0190276 0.00573,-0.0356248 0.017187,-0.049774 0.012674,-0.0154687 0.029687,-0.0244443 0.051215,-0.0269616 l 0.3303799,0 c 0.010764,0.00224 0.016146,0.008507 0.016146,0.0187672 0,0.008733 -0.00451,0.015052 -0.013368,0.018802 z" />
  <path
     style="font-style:normal;font-variant:normal;font-weight:normal;font-stretch:normal;letter-spacing:normal;word-spacing:normal;text-anchor:start;fill:#060808;fill-rule:nonzero;stroke:#060808;stroke-width:0;stroke-linecap:butt;stroke-linejoin:miter;stroke-miterlimit:10.43299961;stroke-opacity:1;stroke-dasharray:none;stroke-dashoffset:0"
     id="path3985"
     d="m 1.1783842,0.36080774 -0.33402562,0 c -0.009896,0.003073 -0.017361,0.008229 -0.0227429,0.0155381 -0.005382,0.007309 -0.007986,0.0151562 -0.007986,0.0236283 0,0.01917 0.010243,0.031689 0.030729,0.0376109 l 0.28072742,0 c 0.020486,0.003505 0.036632,0.0128784 0.048611,0.0280068 0.011111,0.0141544 0.016666,0.0304703 0.016666,0.0488903 0,0.0179235 -0.00538,0.0335953 -0.015972,0.0469893 -0.011806,0.0146551 -0.028298,0.0238509 -0.049305,0.0276284 l -0.33489374,0 c -0.009028,-0.004001 -0.013368,-0.0102741 -0.013368,-0.0187777 0,-0.008274 0.00434,-0.0145329 0.0131944,-0.0188002 l 0.33315754,0 c 0.020139,-0.005832 0.030382,-0.0183297 0.030382,-0.0373991 0,-0.00841 -0.00278,-0.0162638 -0.00799,-0.0235189 -0.00538,-0.007243 -0.012847,-0.0124044 -0.022396,-0.0154495 l -0.28072732,0 c -0.0210068,-0.003269 -0.0374998,-0.0123888 -0.0493052,-0.0273366 -0.0109374,-0.0134339 -0.0163193,-0.0294043 -0.0163193,-0.0478435 0,-0.0190276 0.005729,-0.0356248 0.0171874,-0.049774 0.0126735,-0.0154687 0.0296873,-0.0244443 0.0512149,-0.0269616 l 0.33037982,0 c 0.010764,0.00224 0.015972,0.008507 0.015972,0.0187672 0,0.008733 -0.00434,0.015052 -0.013194,0.018802 z" />
  <path
     style="font-style:normal;font-variant:normal;font-weight:normal;font-stretch:normal;letter-spacing:normal;word-spacing:normal;text-anchor:start;fill:#060808;fill-rule:nonzero;stroke:#060808;stroke-width:0;stroke-linecap:butt;stroke-linejoin:miter;stroke-miterlimit:10.43299961;stroke-opacity:1;stroke-dasharray:none;stroke-dashoffset:0"
     id="path3987"
     d="m 2.0384482,0.57042271 -3.473e-4,0.001078 -1.736e-4,0.001043 -3.472e-4,0.001009 -5.208e-4,9.7482e-4 -3.472e-4,9.4044e-4 -3.473e-4,9.0642e-4 -3.472e-4,8.7187e-4 -5.208e-4,8.3784e-4 -3.472e-4,8.0347e-4 -5.209e-4,7.6927e-4 -5.208e-4,7.3506e-4 -5.208e-4,7.0069e-4 -3.472e-4,6.6666e-4 -5.209e-4,6.3229e-4 -6.944e-4,5.9809e-4 -5.208e-4,5.6388e-4 -5.209e-4,5.2969e-4 -5.208e-4,4.9548e-4 -6.944e-4,4.6128e-4 -5.209e-4,4.2691e-4 -6.944e-4,3.9288e-4 -6.945e-4,3.5868e-4 -5.208e-4,3.2447e-4 -6.944e-4,2.9045e-4 -6.945e-4,2.5608e-4 -6.944e-4,2.2187e-4 -8.681e-4,1.8785e-4 -6.944e-4,1.5364e-4 -6.944e-4,1.1962e-4 -8.681e-4,8.524e-5 -6.944e-4,5.122e-5 -8.681e-4,1.701e-5 c -0.0059,0 -0.014062,-0.003045 -0.023785,-0.009128 -0.0066,-0.004537 -0.013368,-0.009074 -0.020312,-0.01361 -0.041146,-0.0235467 -0.094097,-0.054892 -0.1586796,-0.0940619 -0.090103,-0.0547288 -0.1430546,-0.0867772 -0.1592003,-0.0961522 l 0,0.19735464 c -0.00174,0.0104029 -0.00816,0.0155975 -0.019271,0.0155975 -0.00885,0 -0.015104,-0.004469 -0.018576,-0.0133122 l 0,-0.23849379 c 0.00451,-0.009115 0.01059,-0.0136978 0.018055,-0.0136978 0.00608,0 0.014062,0.003316 0.023611,0.009948 0.00729,0.005139 0.014757,0.010243 0.022396,0.0153471 0.042708,0.0240971 0.095485,0.0552253 0.1579851,0.0935011 0.052083,0.0321856 0.1043396,0.0642426 0.1565962,0.0961574 l 0,-0.19738415 c 0.00226,-0.0106423 0.00885,-0.0159721 0.019791,-0.0159721 0.00885,0 0.015278,0.004566 0.019271,0.0136284 z" />
  <polygon
     style="font-style:normal;font-variant:normal;font-weight:normal;font-stretch:normal;letter-spacing:normal;word-spacing:normal;text-anchor:start;fill:#060808;fill-rule:nonzero;stroke:#060808;stroke-width:0;stroke-linecap:butt;stroke-linejoin:miter;stroke-miterlimit:10.43299961;stroke-opacity:1;stroke-dasharray:none;stroke-dashoffset:0"
     id="polygon3989"
     points="1586.9,131.9 1791.7,131.9 1791.7,154.37 1586.9,154.37 "
     transform="matrix(0.0017361,0,0,-0.0017361,-1.5354873,0.59004238)" />
  <polygon
     style="font-style:normal;font-variant:normal;font-weight:normal;font-stretch:normal;letter-spacing:normal;word-spacing:normal;text-anchor:start;fill:#060808;fill-rule:nonzero;stroke:#060808;stroke-width:0;stroke-linecap:butt;stroke-linejoin:miter;stroke-miterlimit:10.43299961;stroke-opacity:1;stroke-dasharray:none;stroke-dashoffset:0"
     id="polygon3991"
     points="1586.9,66.258 1791.7,66.258 1791.7,88.75 1586.9,88.75 "
     transform="matrix(0.0017361,0,0,-0.0017361,-1.5354873,0.59004238)" />
  <polygon
     style="font-style:normal;font-variant:normal;font-weight:normal;font-stretch:normal;letter-spacing:normal;word-spacing:normal;text-anchor:start;fill:#060808;fill-rule:nonzero;stroke:#060808;stroke-width:0;stroke-linecap:butt;stroke-linejoin:miter;stroke-miterlimit:10.43299961;stroke-opacity:1;stroke-dasharray:none;stroke-dashoffset:0"
     id="polygon3993"
     points="1586.9,0 1791.7,0 1791.7,22.477 1586.9,22.477 "
     transform="matrix(0.0017361,0,0,-0.0017361,-1.5354873,0.59004238)" />
  <polygon
     style="font-style:normal;font-variant:normal;font-weight:normal;font-stretch:normal;letter-spacing:normal;word-spacing:normal;text-anchor:start;fill:#060808;fill-rule:nonzero;stroke:#060808;stroke-width:0;stroke-linecap:butt;stroke-linejoin:miter;stroke-miterlimit:10.43299961;stroke-opacity:1;stroke-dasharray:none;stroke-dashoffset:0"
     id="polygon3995"
     points="2344.9,131.9 2549.7,131.9 2549.7,154.37 2344.9,154.37 "
     transform="matrix(0.0017361,0,0,-0.0017361,-1.5354873,0.59004238)" />
  <polygon
     style="font-style:normal;font-variant:normal;font-weight:normal;font-stretch:normal;letter-spacing:normal;word-spacing:normal;text-anchor:start;fill:#060808;fill-rule:nonzero;stroke:#060808;stroke-width:0;stroke-linecap:butt;stroke-linejoin:miter;stroke-miterlimit:10.43299961;stroke-opacity:1;stroke-dasharray:none;stroke-dashoffset:0"
     id="polygon3997"
     points="2344.9,66.258 2549.7,66.258 2549.7,88.75 2344.9,88.75 "
     transform="matrix(0.0017361,0,0,-0.0017361,-1.5354873,0.59004238)" />
  <polygon
     style="font-style:normal;font-variant:normal;font-weight:normal;font-stretch:normal;letter-spacing:normal;word-spacing:normal;text-anchor:start;fill:#060808;fill-rule:nonzero;stroke:#060808;stroke-width:0;stroke-linecap:butt;stroke-linejoin:miter;stroke-miterlimit:10.43299961;stroke-opacity:1;stroke-dasharray:none;stroke-dashoffset:0"
     id="polygon3999"
     points="2344.9,0 2549.7,0 2549.7,22.477 2344.9,22.477 "
     transform="matrix(0.0017361,0,0,-0.0017361,-1.5354873,0.59004238)" />
  <polygon
     style="font-style:normal;font-variant:normal;font-weight:normal;font-stretch:normal;letter-spacing:normal;word-spacing:normal;text-anchor:start;fill:#060808;fill-rule:nonzero;stroke:#060808;stroke-width:0;stroke-linecap:butt;stroke-linejoin:miter;stroke-miterlimit:10.43299961;stroke-opacity:1;stroke-dasharray:none;stroke-dashoffset:0"
     id="polygon4001"
     points="2564.3,150.31 2564.3,154.32 2590.2,154.32 2590.2,150.31 2579.8,150.31 2579.8,131.82 2574.6,131.82 2574.6,150.31 "
     transform="matrix(0.0017361,0,0,-0.0017361,-1.5354873,0.59004238)" />
  <path
     style="font-style:normal;font-variant:normal;font-weight:normal;font-stretch:normal;letter-spacing:normal;word-spacing:normal;text-anchor:start;fill:#060808;fill-rule:nonzero;stroke:#060808;stroke-width:0;stroke-linecap:butt;stroke-linejoin:miter;stroke-miterlimit:10.43299961;stroke-opacity:1;stroke-dasharray:none;stroke-dashoffset:0"
     id="path4003"
     d="m 2.97247,0.36118968 0,-0.0390623 0.00729,0 0.018403,0.0236283 0.018056,-0.0236283 0.00729,0 0,0.0390623 -0.00851,0 0,-0.0241492 c 0,-9.5486e-4 1.736e-4,-0.002344 3.472e-4,-0.004167 -8.68e-4,0.001979 -0.00174,0.003333 -0.00226,0.004097 l -0.014583,0.0195311 -0.00191,0 -0.014757,-0.0196179 c -0.00104,-0.001406 -0.00174,-0.002743 -0.00226,-0.00401 1.736e-4,0.001562 1.736e-4,0.002951 1.736e-4,0.004167 l 0,0.0241492 z" />
</svg>
