%!PS-Adobe-3.0
%%Creator: cairo 1.8.10 (http://cairographics.org)
%%CreationDate: Tue Jun 22 07:55:43 2010
%%Pages: 1
%%BoundingBox: 0 0 2626 155
%%DocumentData: Clean7Bit
%%LanguageLevel: 2
%%EndComments
%%BeginProlog
/languagelevel where
{ pop languagelevel } { 1 } ifelse
2 lt { /Helvetica findfont 12 scalefont setfont 50 500 moveto
  (This print job requires a PostScript Language Level 2 printer.) show
  showpage quit } if
/q { gsave } bind def
/Q { grestore } bind def
/cm { 6 array astore concat } bind def
/w { setlinewidth } bind def
/J { setlinecap } bind def
/j { setlinejoin } bind def
/M { setmiterlimit } bind def
/d { setdash } bind def
/m { moveto } bind def
/l { lineto } bind def
/c { curveto } bind def
/h { closepath } bind def
/re { exch dup neg 3 1 roll 5 3 roll moveto 0 rlineto
      0 exch rlineto 0 rlineto closepath } bind def
/S { stroke } bind def
/f { fill } bind def
/f* { eofill } bind def
/B { fill stroke } bind def
/B* { eofill stroke } bind def
/n { newpath } bind def
/W { clip } bind def
/W* { eoclip } bind def
/BT { } bind def
/ET { } bind def
/pdfmark where { pop globaldict /?pdfmark /exec load put }
    { globaldict begin /?pdfmark /pop load def /pdfmark
    /cleartomark load def end } ifelse
/BDC { mark 3 1 roll /BDC pdfmark } bind def
/EMC { mark /EMC pdfmark } bind def
/cairo_store_point { /cairo_point_y exch def /cairo_point_x exch def } def
/Tj { show currentpoint cairo_store_point } bind def
/TJ {
  {
    dup
    type /stringtype eq
    { show } { -0.001 mul 0 cairo_font_matrix dtransform rmoveto } ifelse
  } forall
  currentpoint cairo_store_point
} bind def
/cairo_selectfont { cairo_font_matrix aload pop pop pop 0 0 6 array astore
    cairo_font exch selectfont cairo_point_x cairo_point_y moveto } bind def
/Tf { pop /cairo_font exch def /cairo_font_matrix where
      { pop cairo_selectfont } if } bind def
/Td { matrix translate cairo_font_matrix matrix concatmatrix dup
      /cairo_font_matrix exch def dup 4 get exch 5 get cairo_store_point
      /cairo_font where { pop cairo_selectfont } if } bind def
/Tm { 2 copy 8 2 roll 6 array astore /cairo_font_matrix exch def
      cairo_store_point /cairo_font where { pop cairo_selectfont } if } bind def
/g { setgray } bind def
/rg { setrgbcolor } bind def
/d1 { setcachedevice } bind def
%%EndProlog
%%Page: 1 1
%%BeginPageSetup
%%PageBoundingBox: 0 0 2626 155
%%EndPageSetup
q
0.0235294 0.0313726 0.0313726 rg
1297.293 110.049 m 1297.195 108.631 l 1297.195 107.201 l 1296.992 
105.767 l 1296.793 104.33 l 1296.492 102.889 l 1296.195 101.439 l 
1295.793 99.99 l 1295.395 98.533 l 1294.895 97.072 l 1294.395 95.603 l 
1293.793 94.135 l 1293.094 92.658 l 1292.395 91.178 l 1291.594 89.689 l 
1290.695 88.197 l 1289.793 86.701 l 1284.094 77.392 1276.793 71.486 
1267.695 69.021 c 1261.594 67.275 1258.395 66.4 1258.094 66.4 c 
1078.297 66.4 l 1078.297 8.885 l 1078.395 6.971 1076.695 5.002 1073.195 
2.939 c 1070.297 1.334 1068.395 0.541 1067.598 0.541 c 1065.895 0.541 
1063.797 1.334 1061.195 2.939 c 1058.098 4.99 1056.598 7.021 1056.598 
9.072 c 1056.598 142.959 l 1056.598 145.447 1058.098 147.869 1060.996 
150.197 c 1063.898 152.517 1066.395 153.678 1068.598 153.678 c 1256.594 
153.678 l 1258.895 153.678 1262.895 152.74 1268.594 150.857 c 1277.195 
148.099 1284.297 142.119 1289.797 132.947 c 1294.793 125.099 1297.293 
117.459 1297.293 110.049 c h
1297.293 110.049 m f
904.047 152.389 m 904.148 152.478 l 904.246 152.58 l 904.348 152.67 l 
904.457 152.748 l 904.578 152.838 l 904.695 152.92 l 904.816 152.998 l 
904.945 153.08 l 905.078 153.15 l 905.215 153.228 l 905.355 153.291 l 
905.496 153.357 l 905.648 153.42 l 905.805 153.49 l 905.957 153.541 l 
906.117 153.599 l 906.285 153.65 l 906.457 153.697 l 906.625 153.748 l 
906.805 153.799 l 906.988 153.838 l 907.176 153.881 l 907.367 153.92 l 
907.566 153.947 l 907.758 153.99 l 907.965 154.017 l 908.168 154.049 l 
908.387 154.068 l 908.598 154.088 l 908.816 154.107 l 909.047 154.131 l 
909.266 154.15 l 911.957 154.15 913.965 153.619 915.426 152.619 c 
918.777 149.849 922.625 145.779 927.035 140.357 c 930.668 135.721 
934.234 131.131 937.746 126.611 c 952.918 108.549 967.996 90.537 
983.047 72.627 c 1006.797 44.365 1022.395 25.146 1029.598 14.928 c 
1031.395 12.767 1031.195 9.99 1028.996 6.65 c 1026.496 2.881 1023.797 
1.002 1020.695 1.002 c 1016.895 1.002 1012.496 3.853 1007.297 9.529 c 
1003.797 13.892 1000.297 18.287 996.824 22.642 c 822.668 22.642 l 
819.035 18.221 815.348 13.799 811.738 9.404 c 806.898 3.795 802.688 
1.002 799.059 1.002 c 795.988 1.002 793.059 2.818 790.277 6.478 c 
789.418 7.642 788.977 9.029 788.977 10.646 c 788.977 13.994 791.137 
18.303 795.535 23.564 c 798.566 27.08 801.566 30.51 804.496 33.853 c 
818.496 50.654 834.348 69.666 851.945 90.865 c 859.715 100.599 867.508 
110.361 875.375 120.099 c 885.297 132.338 894.895 143.088 904.047 
152.389 c h
904.047 152.389 m f
231.262 132.041 m 38.898 132.041 l 33.191 130.267 28.855 127.299 25.801 
123.088 c 22.699 118.881 21.203 114.357 21.203 109.478 c 21.203 98.439 
27.102 91.228 38.898 87.814 c 200.59 87.814 l 212.379 85.795 221.688 
80.396 228.539 71.685 c 234.988 63.529 238.137 54.131 238.137 43.521 c 
238.137 33.197 235.121 24.174 228.988 16.455 c 222.168 8.017 212.699 
2.721 200.609 0.545 c 7.617 0.545 l 2.547 2.846 0 6.459 0 11.357 c 0 
16.123 2.547 19.728 7.617 22.189 c 199.527 22.189 l 211.141 25.549 
216.969 32.744 216.969 43.728 c 216.969 48.572 215.438 53.099 212.379 
57.275 c 209.32 61.447 205.02 64.42 199.469 66.174 c 37.781 66.174 l 
25.699 68.057 16.227 73.31 9.371 81.92 c 3.094 89.658 0 98.857 0 
109.478 c 0 120.439 3.281 129.998 9.82 138.15 c 17.148 147.06 26.973 
152.228 39.375 153.678 c 229.699 153.678 l 235.848 152.389 238.91 
148.779 238.91 142.869 c 238.91 137.838 236.316 134.197 231.258 132.041 
c h
231.262 132.041 m f
494.59 152.818 m 494.891 152.607 l 495.168 152.4 l 495.449 152.189 l 
495.719 151.971 l 495.98 151.74 l 496.23 151.51 l 496.469 151.279 l 
496.711 151.041 l 496.93 150.799 l 497.141 150.549 l 497.34 150.299 l 
497.539 150.049 l 497.719 149.791 l 497.898 149.517 l 498.059 149.26 l 
498.219 148.978 l 498.367 148.709 l 498.508 148.428 l 498.629 148.139 l 
498.75 147.849 l 498.859 147.56 l 498.961 147.26 l 499.051 146.959 l 
499.129 146.65 l 499.199 146.338 l 499.27 146.017 l 499.32 145.709 l 
499.359 145.381 l 499.398 145.049 l 499.418 144.721 l 499.43 144.381 l 
499.438 144.041 l 499.438 139.221 496.82 135.357 491.527 132.428 c 
477.398 124.689 460.5 114.767 440.801 102.658 c 424.031 92.307 407.23 
81.951 390.488 71.603 c 390.488 10.4 l 389.461 4.447 385.73 1.455 
379.359 1.455 c 374.25 1.455 370.621 4.002 368.59 9.092 c 368.59 71.588 
l 368.16 71.873 361.66 75.732 349.129 83.154 c 345.43 85.338 340.59 
88.256 334.43 91.896 c 332.07 93.197 327.93 95.748 321.941 99.537 c 
321.648 99.701 318.02 101.881 311 106.119 c 278.18 125.857 l 275.164 
127.607 272.039 129.369 268.812 131.131 c 264.57 133.588 261.641 
135.877 260.07 137.908 c 259.023 139.221 258.551 140.767 258.551 
142.517 c 258.551 145.299 259.883 147.908 262.621 150.299 c 265.34 
152.709 268.18 153.908 271.113 153.908 c 272.609 153.908 273.914 
153.619 275.07 153.017 c 282.648 148.06 317.309 127.049 379.039 89.986 
c 382.578 91.705 389.328 95.521 399.418 101.428 c 418.93 113.517 
447.078 130.65 483.879 152.799 c 485.047 153.4 486.77 153.767 489.129 
153.908 c 491.59 153.908 493.438 153.549 494.59 152.818 c h
494.59 152.818 m f
763.367 11.303 m 763.188 10.682 l 762.996 10.08 l 762.797 9.498 l 
762.586 8.935 l 762.379 8.396 l 762.148 7.873 l 761.918 7.369 l 761.668 
6.889 l 761.418 6.424 l 761.156 5.982 l 760.887 5.56 l 760.609 5.154 l 
760.316 4.771 l 760.016 4.408 l 759.707 4.064 l 759.398 3.736 l 759.066 
3.432 l 758.738 3.146 l 758.398 2.881 l 758.039 2.635 l 757.676 2.408 l 
757.309 2.201 l 756.926 2.017 l 756.539 1.849 l 756.137 1.701 l 755.738 
1.572 l 755.316 1.467 l 754.898 1.377 l 754.457 1.307 l 754.016 1.26 l 
753.566 1.228 l 753.098 1.221 l 749.598 1.221 745.008 2.974 739.328 
6.478 c 735.539 9.092 731.648 11.705 727.719 14.314 c 703.949 27.881 
673.457 45.935 636.25 68.494 c 584.367 100.021 553.797 118.478 544.609 
123.881 c 544.609 10.205 l 543.559 4.213 539.859 1.221 533.418 1.221 c 
528.32 1.221 524.75 3.795 522.738 8.889 c 522.738 146.26 l 525.348 
151.51 528.867 154.15 533.199 154.15 c 536.711 154.15 541.23 152.24 
546.75 148.42 c 551 145.459 555.258 142.517 559.66 139.58 c 584.34 
125.701 614.66 107.771 650.688 85.724 c 680.727 67.185 710.797 48.721 
740.828 30.338 c 740.828 144.029 l 742.168 150.158 745.926 153.228 
752.246 153.228 c 757.348 153.228 761.039 150.599 763.367 145.381 c h
763.367 11.303 m f
1 g
909.336 126.838 m 841.035 44.303 l 978.395 44.303 l h
909.336 126.838 m f
1275.395 109.92 m 1275.395 110.771 l 1275.293 111.619 l 1275.195 
112.471 l 1274.996 113.33 l 1274.895 114.182 l 1274.594 115.041 l 
1274.293 115.9 l 1273.996 116.76 l 1273.594 117.631 l 1273.195 118.49 l 
1272.793 119.361 l 1272.293 120.228 l 1271.695 121.099 l 1271.195 
121.971 l 1270.594 122.849 l 1269.895 123.717 l 1265.695 129.099 
1260.992 131.717 1255.895 131.588 c 1078.297 131.588 l 1078.297 88.068 
l 1255.793 88.068 l 1259.195 88.068 1263.094 89.912 1267.492 93.615 c 
1271.793 97.346 1274.094 100.967 1274.293 104.459 c 1274.293 104.9 
1274.395 105.779 1274.793 107.08 c 1275.195 108.389 1275.395 109.357 
1275.395 109.92 c h
1275.395 109.92 m f
0.0235294 0.0313726 0.0313726 rg
2310.086 132.041 m 2117.789 132.041 l 2111.988 130.267 2107.688 127.299 
2104.59 123.088 c 2101.586 118.881 2099.988 114.357 2099.988 109.478 c 
2099.988 98.439 2105.887 91.228 2117.785 87.814 c 2279.387 87.814 l 
2291.184 85.795 2300.484 80.396 2307.387 71.685 c 2313.785 63.529 
2316.984 54.131 2316.984 43.521 c 2316.984 33.197 2313.887 24.174 
2307.887 16.455 c 2300.984 8.017 2291.484 2.721 2279.484 0.545 c 
2086.488 0.545 l 2081.391 2.846 2078.785 6.459 2078.785 11.357 c 
2078.785 16.123 2081.383 19.728 2086.488 22.189 c 2278.387 22.189 l 
2289.984 25.549 2295.785 32.744 2295.785 43.728 c 2295.785 48.572 
2294.289 53.099 2291.184 57.275 c 2288.184 61.447 2283.785 64.42 
2278.281 66.174 c 2116.586 66.174 l 2104.586 68.057 2095.086 73.31 
2088.184 81.92 c 2081.887 89.658 2078.785 98.857 2078.785 109.478 c 
2078.785 120.439 2082.086 129.998 2088.684 138.15 c 2095.984 147.06 
2105.785 152.228 2118.184 153.678 c 2308.484 153.678 l 2314.684 152.389 
2317.785 148.779 2317.785 142.869 c 2317.785 137.838 2315.184 134.197 
2310.082 132.041 c h
2310.086 132.041 m f
1563.191 132.041 m 1370.793 132.041 l 1365.094 130.267 1360.793 127.299 
1357.695 123.088 c 1354.594 118.881 1353.094 114.357 1353.094 109.478 c 
1353.094 98.439 1358.992 91.228 1370.793 87.814 c 1532.492 87.814 l 
1544.293 85.795 1553.594 80.396 1560.492 71.685 c 1566.891 63.529 
1570.094 54.131 1570.094 43.521 c 1570.094 33.197 1566.992 24.174 
1560.891 16.455 c 1554.094 8.017 1544.594 2.721 1532.492 0.545 c 
1339.594 0.545 l 1334.395 2.846 1331.895 6.459 1331.895 11.357 c 
1331.895 16.123 1334.395 19.728 1339.492 22.189 c 1531.391 22.189 l 
1542.992 25.549 1548.891 32.744 1548.891 43.728 c 1548.891 48.572 
1547.293 53.099 1544.289 57.275 c 1541.191 61.447 1536.891 64.42 
1531.391 66.174 c 1369.691 66.174 l 1357.59 68.057 1348.09 73.31 
1341.293 81.92 c 1334.992 89.658 1331.891 98.857 1331.891 109.478 c 
1331.891 120.439 1335.191 129.998 1341.793 138.15 c 1349.09 147.06 
1358.891 152.228 1371.293 153.678 c 1561.59 153.678 l 1567.789 152.389 
1570.789 148.779 1570.789 142.869 c 1570.789 137.838 1568.289 134.197 
1563.191 132.041 c h
1563.191 132.041 m f
2058.59 11.303 m 2058.391 10.682 l 2058.289 10.08 l 2058.09 9.498 l 
2057.789 8.935 l 2057.59 8.396 l 2057.391 7.873 l 2057.188 7.369 l 
2056.891 6.889 l 2056.688 6.424 l 2056.391 5.982 l 2056.09 5.56 l 
2055.789 5.154 l 2055.59 4.771 l 2055.289 4.408 l 2054.891 4.064 l 
2054.59 3.736 l 2054.289 3.432 l 2053.988 3.146 l 2053.59 2.881 l 
2053.289 2.635 l 2052.891 2.408 l 2052.488 2.201 l 2052.188 2.017 l 
2051.789 1.849 l 2051.391 1.701 l 2050.988 1.572 l 2050.488 1.467 l 
2050.09 1.377 l 2049.688 1.307 l 2049.188 1.26 l 2048.789 1.228 l 
2048.289 1.221 l 2044.891 1.221 2040.191 2.974 2034.59 6.478 c 2030.789 
9.092 2026.891 11.705 2022.891 14.314 c 1999.188 27.881 1968.688 45.935 
1931.488 68.494 c 1879.59 100.021 1849.09 118.478 1839.789 123.881 c 
1839.789 10.205 l 1838.789 4.213 1835.09 1.221 1828.691 1.221 c 
1823.594 1.221 1819.992 3.795 1817.992 8.889 c 1817.992 146.26 l 
1820.59 151.51 1824.09 154.15 1828.391 154.15 c 1831.891 154.15 
1836.488 152.24 1841.988 148.42 c 1846.188 145.459 1850.492 142.517 
1854.891 139.58 c 1879.488 125.701 1909.891 107.771 1945.891 85.724 c 
1975.891 67.185 2005.988 48.721 2036.09 30.338 c 2036.09 144.029 l 
2037.391 150.158 2041.188 153.228 2047.488 153.228 c 2052.586 153.228 
2056.289 150.599 2058.59 145.381 c h
2058.59 11.303 m f
1586.891 131.9 204.801 22.469 re f
1586.891 66.256 204.801 22.492 re f
1586.891 0.002 204.801 22.477 re f
2344.887 131.9 204.801 22.469 re f
2344.887 66.256 204.801 22.492 re f
2344.887 0.002 204.801 22.477 re f
2564.285 150.31 m 2564.285 154.318 l 2590.188 154.318 l 2590.188 150.31 
l 2579.785 150.31 l 2579.785 131.818 l 2574.586 131.818 l 2574.586 
150.31 l h
2564.285 150.31 m f
2596.586 131.818 m 2596.586 154.318 l 2600.785 154.318 l 2611.387 
140.709 l 2621.785 154.318 l 2625.984 154.318 l 2625.984 131.818 l 
2621.082 131.818 l 2621.082 145.728 l 2621.082 146.279 2621.184 147.08 
2621.281 148.131 c 2620.781 146.99 2620.281 146.209 2619.98 145.771 c 
2611.582 134.521 l 2610.48 134.521 l 2601.98 145.818 l 2601.383 146.631 
2600.977 147.4 2600.68 148.131 c 2600.777 147.228 2600.777 146.428 
2600.777 145.728 c 2600.777 131.818 l h
2596.586 131.818 m f
Q
showpage
%%Trailer
%%EOF
